You are using Cufflinks v2.2.1, which is the most recent release.
Command line:
cufflinks -o NoG -L NoG -I 5000 -q -p 6 -b A_thaliana_Jun_2009.fa heat_drought.bam 
[10:45:53] Inspecting reads and determining fragment length distribution.
Processed 50841 loci.                       
> Map Properties:
>	Normalized Map Mass: 508448758.00
>	Raw Map Mass: 508448758.00
>	Fragment Length Distribution: Truncated Gaussian (default)
>	              Default Mean: 200
>	           Default Std Dev: 80
[11:18:45] Assembling transcripts and estimating abundances.
Processed 51371 loci.                       
[12:39:23] Loading reference annotation and sequence.
[12:39:26] Learning bias parameters.
Processed 19855 loci.                       
[13:20:26] Re-estimating abundances with bias correction.
Processed 19855 loci.                       
