accession	message	sample_name	bioproject_accession	organism	isolate	cultivar	ecotype	age	dev_stage	geo_loc_name	tissue	biomaterial_provider	growth_protocol	sample_type	temp	treatment	zeitgeber	pot	biological_replicate
SAMN12685008	Successfully loaded	Dry-B-T1	PRJNA509437	Arabidopsis thaliana			Col-0	21 days		USA:University of North Carolina at Charlotte, Charlotte, NC	rosettes	Ann Loraine, Department of Bioinformatics and Genomics, University of North Carolina at Charlotte, Kannapolis, NC 28085	Seeds sown onto ten-inch diameter, plastic pots filled with soil to 1.5 inches depth. Pots were stored at 4C for three days to encourage uniform germination and then placed in a growth chamber configured for 16/8 light/dark illumination at 22C and 45% relative humidity.	Tissue	22C	3 days no water	6	B	1
SAMN12685009	Successfully loaded	Dry-C-T1	PRJNA509437	Arabidopsis thaliana			Col-0	21 days		USA:University of North Carolina at Charlotte, Charlotte, NC	rosettes	Ann Loraine, Department of Bioinformatics and Genomics, University of North Carolina at Charlotte, Kannapolis, NC 28087	Seeds sown onto ten-inch diameter, plastic pots filled with soil to 1.5 inches depth. Pots were stored at 4C for three days to encourage uniform germination and then placed in a growth chamber configured for 16/8 light/dark illumination at 22C and 45% relative humidity.	Tissue	22C	3 days no water	6	C	2
SAMN12685010	Successfully loaded	Dry-E-T1	PRJNA509437	Arabidopsis thaliana			Col-0	21 days		USA:University of North Carolina at Charlotte, Charlotte, NC	rosettes	Ann Loraine, Department of Bioinformatics and Genomics, University of North Carolina at Charlotte, Kannapolis, NC 28089	Seeds sown onto ten-inch diameter, plastic pots filled with soil to 1.5 inches depth. Pots were stored at 4C for three days to encourage uniform germination and then placed in a growth chamber configured for 16/8 light/dark illumination at 22C and 45% relative humidity.	Tissue	22C	3 days no water	6	E	3
SAMN12685011	Successfully loaded	Dry-B-T2	PRJNA509437	Arabidopsis thaliana			Col-0	25 days		USA:University of North Carolina at Charlotte, Charlotte, NC	rosettes	Ann Loraine, Department of Bioinformatics and Genomics, University of North Carolina at Charlotte, Kannapolis, NC 28086	Seeds sown onto ten-inch diameter, plastic pots filled with soil to 1.5 inches depth. Pots were stored at 4C for three days to encourage uniform germination and then placed in a growth chamber configured for 16/8 light/dark illumination at 22C and 45% relative humidity.	Tissue	22C	7 days no water	6	B	1
SAMN12685012	Successfully loaded	Dry-C-T2	PRJNA509437	Arabidopsis thaliana			Col-0	25 days		USA:University of North Carolina at Charlotte, Charlotte, NC	rosettes	Ann Loraine, Department of Bioinformatics and Genomics, University of North Carolina at Charlotte, Kannapolis, NC 28088	Seeds sown onto ten-inch diameter, plastic pots filled with soil to 1.5 inches depth. Pots were stored at 4C for three days to encourage uniform germination and then placed in a growth chamber configured for 16/8 light/dark illumination at 22C and 45% relative humidity.	Tissue	22C	7 days no water	6	C	2
SAMN12685013	Successfully loaded	Dry-E-T2	PRJNA509437	Arabidopsis thaliana			Col-0	25 days		USA:University of North Carolina at Charlotte, Charlotte, NC	rosettes	Ann Loraine, Department of Bioinformatics and Genomics, University of North Carolina at Charlotte, Kannapolis, NC 28090	Seeds sown onto ten-inch diameter, plastic pots filled with soil to 1.5 inches depth. Pots were stored at 4C for three days to encourage uniform germination and then placed in a growth chamber configured for 16/8 light/dark illumination at 22C and 45% relative humidity.	Tissue	22C	7 days no water	6	E	3
SAMN12685014	Successfully loaded	Wet-A-T1	PRJNA509437	Arabidopsis thaliana			Col-0	21 days		USA:University of North Carolina at Charlotte, Charlotte, NC	rosettes	Ann Loraine, Department of Bioinformatics and Genomics, University of North Carolina at Charlotte, Kannapolis, NC 28099	Seeds sown onto ten-inch diameter, plastic pots filled with soil to 1.5 inches depth. Pots were stored at 4C for three days to encourage uniform germination and then placed in a growth chamber configured for 16/8 light/dark illumination at 22C and 45% relative humidity.	Tissue	22C	Control	6	A	1
SAMN12685015	Successfully loaded	Wet-F-T1	PRJNA509437	Arabidopsis thaliana			Col-0	21 days		USA:University of North Carolina at Charlotte, Charlotte, NC	rosettes	Ann Loraine, Department of Bioinformatics and Genomics, University of North Carolina at Charlotte, Kannapolis, NC 28102	Seeds sown onto ten-inch diameter, plastic pots filled with soil to 1.5 inches depth. Pots were stored at 4C for three days to encourage uniform germination and then placed in a growth chamber configured for 16/8 light/dark illumination at 22C and 45% relative humidity.	Tissue	22C	Control	6	F	2
SAMN12685016	Successfully loaded	Wet-A-T2	PRJNA509437	Arabidopsis thaliana			Col-0	25 days		USA:University of North Carolina at Charlotte, Charlotte, NC	rosettes	Ann Loraine, Department of Bioinformatics and Genomics, University of North Carolina at Charlotte, Kannapolis, NC 28100	Seeds sown onto ten-inch diameter, plastic pots filled with soil to 1.5 inches depth. Pots were stored at 4C for three days to encourage uniform germination and then placed in a growth chamber configured for 16/8 light/dark illumination at 22C and 45% relative humidity.	Tissue	22C	Control	6	A	1
SAMN12685017	Successfully loaded	Wet-D-T2	PRJNA509437	Arabidopsis thaliana			Col-0	25 days		USA:University of North Carolina at Charlotte, Charlotte, NC	rosettes	Ann Loraine, Department of Bioinformatics and Genomics, University of North Carolina at Charlotte, Kannapolis, NC 28101	Seeds sown onto ten-inch diameter, plastic pots filled with soil to 1.5 inches depth. Pots were stored at 4C for three days to encourage uniform germination and then placed in a growth chamber configured for 16/8 light/dark illumination at 22C and 45% relative humidity.	Tissue	22C	Control	6	D	2
SAMN12685018	Successfully loaded	Wet-F-T2	PRJNA509437	Arabidopsis thaliana			Col-0	25 days		USA:University of North Carolina at Charlotte, Charlotte, NC	rosettes	Ann Loraine, Department of Bioinformatics and Genomics, University of North Carolina at Charlotte, Kannapolis, NC 28103	Seeds sown onto ten-inch diameter, plastic pots filled with soil to 1.5 inches depth. Pots were stored at 4C for three days to encourage uniform germination and then placed in a growth chamber configured for 16/8 light/dark illumination at 22C and 45% relative humidity.	Tissue	22C	Control	6	F	3
SAMN12685019	Successfully loaded	Hot-I1-T1	PRJNA509437	Arabidopsis thaliana			Col-0	21 days		USA:University of North Carolina at Charlotte, Charlotte, NC	rosettes	Ann Loraine, Department of Bioinformatics and Genomics, University of North Carolina at Charlotte, Kannapolis, NC 28091	Seeds sown onto ten-inch diameter, plastic pots filled with soil to 1.5 inches depth. Pots were stored at 4C for three days to encourage uniform germination and then placed in a growth chamber configured for 16/8 light/dark illumination at 22C and 45% relative humidity.	Tissue	22C	3 hours 38C	9	I	1
SAMN12685020	Successfully loaded	Hot-K1-T1	PRJNA509437	Arabidopsis thaliana			Col-0	21 days		USA:University of North Carolina at Charlotte, Charlotte, NC	rosettes	Ann Loraine, Department of Bioinformatics and Genomics, University of North Carolina at Charlotte, Kannapolis, NC 28095	Seeds sown onto ten-inch diameter, plastic pots filled with soil to 1.5 inches depth. Pots were stored at 4C for three days to encourage uniform germination and then placed in a growth chamber configured for 16/8 light/dark illumination at 22C and 45% relative humidity.	Tissue	22C	3 hours 38C	9	K	2
SAMN12685021	Successfully loaded	Hot-I2-T1	PRJNA509437	Arabidopsis thaliana			Col-0	21 days		USA:University of North Carolina at Charlotte, Charlotte, NC	rosettes	Ann Loraine, Department of Bioinformatics and Genomics, University of North Carolina at Charlotte, Kannapolis, NC 28093	Seeds sown onto ten-inch diameter, plastic pots filled with soil to 1.5 inches depth. Pots were stored at 4C for three days to encourage uniform germination and then placed in a growth chamber configured for 16/8 light/dark illumination at 22C and 45% relative humidity.	Tissue	22C	3 hours 38C	9	I	3
SAMN12685022	Successfully loaded	Hot-K2-T1	PRJNA509437	Arabidopsis thaliana			Col-0	21 days		USA:University of North Carolina at Charlotte, Charlotte, NC	rosettes	Ann Loraine, Department of Bioinformatics and Genomics, University of North Carolina at Charlotte, Kannapolis, NC 28097	Seeds sown onto ten-inch diameter, plastic pots filled with soil to 1.5 inches depth. Pots were stored at 4C for three days to encourage uniform germination and then placed in a growth chamber configured for 16/8 light/dark illumination at 22C and 45% relative humidity.	Tissue	22C	3 hours 38C	9	K	4
SAMN12685023	Successfully loaded	Hot-I1-T2	PRJNA509437	Arabidopsis thaliana			Col-0	22 days		USA:University of North Carolina at Charlotte, Charlotte, NC	rosettes	Ann Loraine, Department of Bioinformatics and Genomics, University of North Carolina at Charlotte, Kannapolis, NC 28092	Seeds sown onto ten-inch diameter, plastic pots filled with soil to 1.5 inches depth. Pots were stored at 4C for three days to encourage uniform germination and then placed in a growth chamber configured for 16/8 light/dark illumination at 22C and 45% relative humidity.	Tissue	22C	3 hours 38C, 24 hour recovery	9	I	1
SAMN12685024	Successfully loaded	Hot-K1-T2	PRJNA509437	Arabidopsis thaliana			Col-0	22 days		USA:University of North Carolina at Charlotte, Charlotte, NC	rosettes	Ann Loraine, Department of Bioinformatics and Genomics, University of North Carolina at Charlotte, Kannapolis, NC 28096	Seeds sown onto ten-inch diameter, plastic pots filled with soil to 1.5 inches depth. Pots were stored at 4C for three days to encourage uniform germination and then placed in a growth chamber configured for 16/8 light/dark illumination at 22C and 45% relative humidity.	Tissue	22C	3 hours 38C, 24 hour recovery	9	K	2
SAMN12685025	Successfully loaded	Hot-I2-T2	PRJNA509437	Arabidopsis thaliana			Col-0	22 days		USA:University of North Carolina at Charlotte, Charlotte, NC	rosettes	Ann Loraine, Department of Bioinformatics and Genomics, University of North Carolina at Charlotte, Kannapolis, NC 28094	Seeds sown onto ten-inch diameter, plastic pots filled with soil to 1.5 inches depth. Pots were stored at 4C for three days to encourage uniform germination and then placed in a growth chamber configured for 16/8 light/dark illumination at 22C and 45% relative humidity.	Tissue	22C	3 hours 38C, 24 hour recovery	9	I	3
SAMN12685026	Successfully loaded	Hot-K2-T2	PRJNA509437	Arabidopsis thaliana			Col-0	22 days		USA:University of North Carolina at Charlotte, Charlotte, NC	rosettes	Ann Loraine, Department of Bioinformatics and Genomics, University of North Carolina at Charlotte, Kannapolis, NC 28098	Seeds sown onto ten-inch diameter, plastic pots filled with soil to 1.5 inches depth. Pots were stored at 4C for three days to encourage uniform germination and then placed in a growth chamber configured for 16/8 light/dark illumination at 22C and 45% relative humidity.	Tissue	22C	3 hours 38C, 24 hour recovery	9	K	4
SAMN12685027	Successfully loaded	Cool-L1-T1	PRJNA509437	Arabidopsis thaliana			Col-0	21 days		USA:University of North Carolina at Charlotte, Charlotte, NC	rosettes	Ann Loraine, Department of Bioinformatics and Genomics, University of North Carolina at Charlotte, Kannapolis, NC 28082	Seeds sown onto ten-inch diameter, plastic pots filled with soil to 1.5 inches depth. Pots were stored at 4C for three days to encourage uniform germination and then placed in a growth chamber configured for 16/8 light/dark illumination at 22C and 45% relative humidity.	Tissue	22C	Control	9	L	1
SAMN12685028	Successfully loaded	Cool-L2-T1	PRJNA509437	Arabidopsis thaliana			Col-0	21 days		USA:University of North Carolina at Charlotte, Charlotte, NC	rosettes	Ann Loraine, Department of Bioinformatics and Genomics, University of North Carolina at Charlotte, Kannapolis, NC 28084	Seeds sown onto ten-inch diameter, plastic pots filled with soil to 1.5 inches depth. Pots were stored at 4C for three days to encourage uniform germination and then placed in a growth chamber configured for 16/8 light/dark illumination at 22C and 45% relative humidity.	Tissue	22C	Control	9	L	2
SAMN12685029	Successfully loaded	Cool-H-T2	PRJNA509437	Arabidopsis thaliana			Col-0	22 days		USA:University of North Carolina at Charlotte, Charlotte, NC	rosettes	Ann Loraine, Department of Bioinformatics and Genomics, University of North Carolina at Charlotte, Kannapolis, NC 28081	Seeds sown onto ten-inch diameter, plastic pots filled with soil to 1.5 inches depth. Pots were stored at 4C for three days to encourage uniform germination and then placed in a growth chamber configured for 16/8 light/dark illumination at 22C and 45% relative humidity.	Tissue	22C	Control	9	H	1
SAMN12685030	Successfully loaded	Cool-L1-T2	PRJNA509437	Arabidopsis thaliana			Col-0	22 days		USA:University of North Carolina at Charlotte, Charlotte, NC	rosettes	Ann Loraine, Department of Bioinformatics and Genomics, University of North Carolina at Charlotte, Kannapolis, NC 28083	Seeds sown onto ten-inch diameter, plastic pots filled with soil to 1.5 inches depth. Pots were stored at 4C for three days to encourage uniform germination and then placed in a growth chamber configured for 16/8 light/dark illumination at 22C and 45% relative humidity.	Tissue	22C	Control	9	L	2
